%YAML 1.1
%TAG !u! tag:unity3d.com,2011:
--- !u!114 &11400000
MonoBehaviour:
  m_ObjectHideFlags: 0
  m_PrefabParentObject: {fileID: 0}
  m_PrefabInternal: {fileID: 0}
  m_GameObject: {fileID: 0}
  m_Enabled: 1
  m_EditorHideFlags: 0
  m_Script: {fileID: 11500000, guid: d7d94148d9591483a843c3c2baa2d8c2, type: 3}
  m_Name: Sound Effects
  m_EditorClassIdentifier: 
  AudioEvents:
  - EventName: Click
    RandomWeight: 1
    Volume: 1
    AudioClip: {fileID: 8300000, guid: 793244a13fcf75e4791710b5403987b8, type: 3}
    Priority: 128
    GroupID: 0
    Loop: 0
    StopWhenSourceDies: 0
    KeepLoopingWhenSourceDies: 0
    DoNotTrackSourceMovement: 0
    BypassEffects: 0
    BypassListenerEffects: 0
    BypassReverbZones: 0
    DopplerLevel: 1
    MaxDistance: 500
    MinDistance: 1
    Mute: 0
    OutputAudioMixerGroup: {fileID: 0}
    PanStereo: 0
    Pitch: 1
    Spatialize: 0
    RolloffMode: 0
    CustomRolloffCurve:
      serializedVersion: 2
      m_Curve: []
      m_PreInfinity: 2
      m_PostInfinity: 2
      m_RotationOrder: 4
    SpatialBlend: 0
    ReverbZoneMix: 1
